{
  "type": "service_account",
  "project_id": "cotdb-389106",
  "private_key_id": "9675877a7619b34fbe17ca95f0e170cc0c2e18f1",
  "private_key": "-----BEGIN PRIVATE KEY-----\nMIIEvQIBADANBgkqhkiG9w0BAQEFAASCBKcwggSjAgEAAoIBAQClFVBeiAqfbIzo\naL7LxfKGkCUOto24f0Uh9wu5ySfaKqSuu175CaLAX7Ak1zR/gr8duoxyoyRYHPLx\nnFHp9+unTV8U113jbkjV4Xpy8P1swHchPUHRJtqkWqTnkfD7Fc+Uep9OoKRAnGc8\nKlih6UOlcz4/+80e8ECHzTBVik5YrACHubm8m4VebAr0tjFpVU8DYlFPW2lOhq1g\nsBg8NQ+D1VfX6nVTF9tgLuTS1QzcShYMci1jA09OU0PVgpt5bfYbopnj8xa3ju2T\nYYlDPS9kF3vygVRRm/jp30UbI6+BhJWtgURDdiOo28KlePzO9xr7iIea09Px83GI\nRo9Vnq2VAgMBAAECggEABVbAoCYHLeu9TODiVsXCl65+vFCUGcTn7/bE5s/GHaym\nYc5Gfohcvpr5n99j38HTO3tmgmibSsw44S58ibQOZ309l3d1nl7ZNS2TH7eCgqtg\nzu7ju4dlp84UqjaSlBQ6/+LNVyYj2cEVJ6F491eLbATjnP8gPaFofNvaddHAweZU\n24kzCn+6wDUBXqg2ZQONH6y2d6gPx1kuR3wilMwZn1jGok6dO2dYvmVki475HMkn\nhXvm0hYdHsKbyHmi7rFC/rSDYKynLLD1UlK3IRtGr7s6dNJwxQ8NM9f5/6eGhpX6\nqpiAUkDJZ7CgNKub9iZyay2UjlnxuhisTXKii5AjYQKBgQDRDmJapKOfAwbRyb3w\nh4xs4ThyjD2izC7QWiCXoM6sXmLBQmWQxngFgC3z4S++2nnHslaiQzjg8sAJTJQR\nqKGDfIY3y6AbQpmpU+yl89FaWoyiohbPn1e7S6dikEI83RGvodPCuJOicc+PZMVw\nmYhVr45SsgTTeZ/iNvvz9TGpBQKBgQDKJyQ14fISc1cFolqgCCPRA+1XMuXM3HPP\nLQpUtePUkXCocy/L2NQ80DmYeeMQjrxHgtIhgC8Ev37fF4atC2pZYcCEft2J8IDU\nfUsK0+6La0QrBJOiSc+IVcmCFM/pmbLSpp9S8ysEFiFpBqCCJwKZ3DFQ4QSewGK6\n91DEijHXUQKBgFCNHlCWx4TpgaMr/MfFMtJxJXLdnpIv4ondcFl8WKYJ6DtW/hN+\npZhY/1vNFLyRKgNMMB1tkWj7oAr1OshjFXi4bm7pQtO+Ib8g2zpGbBBIe4/erLNr\nTj6Ys/JCa4NQGxR1YkbRH/GjsLortffg8Kszbb9nYHyrjHN5hDNH8s6RAoGAS0da\nJ6qVL6O98z4rS07cr5gryP4OL0Sk57CZGUSGrADhGAmU8e8z0dWkrRAuq1rL6EFi\nKNGIMNdy0nb7UvNeThylyXFI5HYoM3jY+hZDza1LPE2/AH9GBjoUCRng9teijOk5\niXU+Po5TML4kBXOrd0pVHw48XzW7Tm6MqDPiLZECgYEAuxgkmC69MncU8nSNA2/l\nz1WeTGq4u0mH6WdwCIEUQfeduxpd2zhpExQ0sW2GjGEQdEuIpgruMMfOOtQWMZ9+\nNQln3PonoabE7sPm5BRAisSP1he0cFOQZkq0NIPIAsk07JpyQByqzg025NvsZtZ7\njuj9zgWm3ajGcyCEQASItL8=\n-----END PRIVATE KEY-----\n",
  "client_email": "cot-db@cotdb-389106.iam.gserviceaccount.com",
  "client_id": "117058865195436499847",
  "auth_uri": "https://accounts.google.com/o/oauth2/auth",
  "token_uri": "https://oauth2.googleapis.com/token",
  "auth_provider_x509_cert_url": "https://www.googleapis.com/oauth2/v1/certs",
  "client_x509_cert_url": "https://www.googleapis.com/robot/v1/metadata/x509/cot-db%40cotdb-389106.iam.gserviceaccount.com",
  "universe_domain": "googleapis.com"
}
